<?xml version="1.0" encoding="UTF-8" standalone="no"?>
<!-- Created with Inkscape (http://www.inkscape.org/) -->

<svg
   xmlns:dc="http://purl.org/dc/elements/1.1/"
   xmlns:cc="http://creativecommons.org/ns#"
   xmlns:rdf="http://www.w3.org/1999/02/22-rdf-syntax-ns#"
   xmlns:svg="http://www.w3.org/2000/svg"
   xmlns="http://www.w3.org/2000/svg"
   xmlns:sodipodi="http://sodipodi.sourceforge.net/DTD/sodipodi-0.dtd"
   xmlns:inkscape="http://www.inkscape.org/namespaces/inkscape"
   width="20.640347mm"
   height="20.640343mm"
   viewBox="0 0 20.640347 20.640343"
   version="1.1"
   id="svg8"
   inkscape:version="0.92.5 (2060ec1f9f, 2020-04-08)"
   sodipodi:docname="galilean-icon.svg">
  <defs
     id="defs2" />
  <sodipodi:namedview
     id="base"
     pagecolor="#0e110c"
     bordercolor="#666666"
     borderopacity="1.0"
     inkscape:pageopacity="0"
     inkscape:pageshadow="2"
     inkscape:zoom="1.979899"
     inkscape:cx="124.9836"
     inkscape:cy="35.517171"
     inkscape:document-units="mm"
     inkscape:current-layer="g898"
     showgrid="false"
     inkscape:window-width="1366"
     inkscape:window-height="704"
     inkscape:window-x="0"
     inkscape:window-y="27"
     inkscape:window-maximized="1"
     fit-margin-top="0"
     fit-margin-left="0"
     fit-margin-right="0"
     fit-margin-bottom="0" />
  <metadata
     id="metadata5">
    <rdf:RDF>
      <cc:Work
         rdf:about="">
        <dc:format>image/svg+xml</dc:format>
        <dc:type
           rdf:resource="http://purl.org/dc/dcmitype/StillImage" />
        <dc:title />
      </cc:Work>
    </rdf:RDF>
  </metadata>
  <g
     inkscape:label="Layer 1"
     inkscape:groupmode="layer"
     id="layer1"
     transform="translate(58.512979,-21.464188)">
    <g
       id="g898"
       transform="matrix(0.03527778,0,0,-0.03527778,-239.6363,363.5238)">
      <path
         d="m 3353.0889,4078.5357 c 0,461.77 -362.45,836.11 -809.55,836.11 -447.11,0 -809.55,-374.34 -809.55,-836.11 0,-461.77 362.44,-410.8 809.55,-410.8 447.1,0 809.55,-50.97 809.55,410.8"
         style="fill:#fbc707;fill-opacity:1;fill-rule:nonzero;stroke:none"
         id="path1054"
         inkscape:connector-curvature="0" />
      <path
         d="m 3016.5189,4277.0057 c 0,261.23 -211.76,472.99 -472.98,472.99 -261.22,0 -472.98,-211.76 -472.98,-472.99 0,-261.21 211.76,-472.97 472.98,-472.97 261.22,0 472.98,211.76 472.98,472.97"
         style="fill:#ffffff;fill-opacity:1;fill-rule:nonzero;stroke:none"
         id="path1056"
         inkscape:connector-curvature="0" />
      <path
         d="m 2543.5389,4547.3857 c -8.21,0 -14.85,6.65 -14.85,14.85 v 85.63 c 0,8.19 6.64,14.84 14.85,14.84 8.2,0 14.85,-6.65 14.85,-14.84 v -85.63 c 0,-8.2 -6.65,-14.85 -14.85,-14.85"
         style="fill:#3e4159;fill-opacity:1;fill-rule:nonzero;stroke:none"
         id="path1058"
         inkscape:connector-curvature="0" />
      <path
         d="m 2543.5389,3891.3157 c -8.21,0 -14.85,6.64 -14.85,14.84 v 85.63 c 0,8.2 6.64,14.85 14.85,14.85 8.2,0 14.85,-6.65 14.85,-14.85 v -85.63 c 0,-8.2 -6.65,-14.84 -14.85,-14.84"
         style="fill:#3e4159;fill-opacity:1;fill-rule:nonzero;stroke:none"
         id="path1060"
         inkscape:connector-curvature="0" />
      <path
         d="m 2400.9389,4509.1757 c -5.13,0 -10.12,2.66 -12.88,7.42 l -42.8,74.16 c -4.11,7.1 -1.67,16.18 5.43,20.28 7.1,4.09 16.18,1.66 20.28,-5.44 l 42.82,-74.15 c 4.09,-7.1 1.66,-16.18 -5.44,-20.28 -2.34,-1.35 -4.89,-1.99 -7.41,-1.99"
         style="fill:#3e4159;fill-opacity:1;fill-rule:nonzero;stroke:none"
         id="path1062"
         inkscape:connector-curvature="0" />
      <path
         d="m 2728.9789,3940.9957 c -5.14,0 -10.13,2.66 -12.88,7.42 l -42.81,74.16 c -4.1,7.1 -1.67,16.18 5.44,20.28 7.11,4.11 16.18,1.67 20.28,-5.43 l 42.81,-74.16 c 4.1,-7.1 1.67,-16.18 -5.44,-20.28 -2.33,-1.35 -4.88,-1.99 -7.4,-1.99"
         style="fill:#3e4159;fill-opacity:1;fill-rule:nonzero;stroke:none"
         id="path1064"
         inkscape:connector-curvature="0" />
      <path
         d="m 2296.5089,4404.7757 c -2.52,0 -5.07,0.64 -7.41,1.99 l -74.15,42.81 c -7.1,4.1 -9.54,13.18 -5.44,20.28 4.11,7.1 13.18,9.54 20.29,5.44 l 74.15,-42.81 c 7.1,-4.1 9.53,-13.18 5.43,-20.28 -2.75,-4.77 -7.74,-7.43 -12.87,-7.43"
         style="fill:#3e4159;fill-opacity:1;fill-rule:nonzero;stroke:none"
         id="path1066"
         inkscape:connector-curvature="0" />
      <path
         d="m 2864.6889,4076.7357 c -2.52,0 -5.07,0.64 -7.41,1.99 l -74.15,42.82 c -7.11,4.09 -9.53,13.18 -5.44,20.28 4.1,7.1 13.19,9.54 20.29,5.43 l 74.15,-42.81 c 7.1,-4.1 9.53,-13.18 5.43,-20.28 -2.75,-4.77 -7.74,-7.43 -12.87,-7.43"
         style="fill:#3e4159;fill-opacity:1;fill-rule:nonzero;stroke:none"
         id="path1068"
         inkscape:connector-curvature="0" />
      <path
         d="m 2258.3089,4262.1657 h -85.62 c -8.2,0 -14.85,6.64 -14.85,14.85 0,8.2 6.65,14.84 14.85,14.84 h 85.62 c 8.2,0 14.85,-6.64 14.85,-14.84 0,-8.21 -6.65,-14.85 -14.85,-14.85"
         style="fill:#3e4159;fill-opacity:1;fill-rule:nonzero;stroke:none"
         id="path1070"
         inkscape:connector-curvature="0" />
      <path
         d="m 2914.3889,4262.1657 h -85.63 c -8.2,0 -14.84,6.64 -14.84,14.85 0,8.2 6.64,14.84 14.84,14.84 h 85.63 c 8.19,0 14.85,-6.64 14.85,-14.84 0,-8.21 -6.66,-14.85 -14.85,-14.85"
         style="fill:#3e4159;fill-opacity:1;fill-rule:nonzero;stroke:none"
         id="path1072"
         inkscape:connector-curvature="0" />
      <path
         d="m 2222.3889,4076.7357 c -5.14,0 -10.13,2.66 -12.88,7.43 -4.1,7.1 -1.66,16.18 5.44,20.28 l 74.15,42.81 c 7.1,4.11 16.19,1.67 20.28,-5.43 4.1,-7.1 1.67,-16.19 -5.43,-20.28 l -74.15,-42.82 c -2.34,-1.35 -4.9,-1.99 -7.41,-1.99"
         style="fill:#3e4159;fill-opacity:1;fill-rule:nonzero;stroke:none"
         id="path1074"
         inkscape:connector-curvature="0" />
      <path
         d="m 2790.5589,4404.7757 c -5.13,0 -10.12,2.66 -12.87,7.43 -4.09,7.1 -1.67,16.18 5.44,20.28 l 74.15,42.81 c 7.1,4.09 16.18,1.66 20.28,-5.44 4.1,-7.1 1.67,-16.18 -5.43,-20.28 l -74.15,-42.81 c -2.34,-1.35 -4.9,-1.99 -7.42,-1.99"
         style="fill:#3e4159;fill-opacity:1;fill-rule:nonzero;stroke:none"
         id="path1076"
         inkscape:connector-curvature="0" />
      <path
         d="m 2358.0989,3940.9957 c -2.52,0 -5.07,0.64 -7.41,1.99 -7.1,4.1 -9.54,13.18 -5.43,20.28 l 42.8,74.16 c 4.1,7.09 13.19,9.54 20.29,5.43 7.1,-4.1 9.53,-13.18 5.44,-20.28 l -42.82,-74.16 c -2.75,-4.76 -7.74,-7.42 -12.87,-7.42"
         style="fill:#3e4159;fill-opacity:1;fill-rule:nonzero;stroke:none"
         id="path1078"
         inkscape:connector-curvature="0" />
      <path
         d="m 2686.1289,4509.1757 c -2.51,0 -5.06,0.64 -7.4,1.99 -7.11,4.1 -9.54,13.18 -5.44,20.28 l 42.81,74.15 c 4.11,7.1 13.18,9.54 20.28,5.44 7.11,-4.1 9.54,-13.18 5.44,-20.28 l -42.81,-74.16 c -2.75,-4.76 -7.74,-7.42 -12.88,-7.42"
         style="fill:#3e4159;fill-opacity:1;fill-rule:nonzero;stroke:none"
         id="path1080"
         inkscape:connector-curvature="0" />
      <path
         d="m 2579.0289,4272.2757 c 0,20.94 -16.97,37.91 -37.91,37.91 -20.94,0 -37.92,-16.97 -37.92,-37.91 0,-20.94 16.98,-37.92 37.92,-37.92 20.94,0 37.91,16.98 37.91,37.92"
         style="fill:#414041;fill-opacity:1;fill-rule:nonzero;stroke:none"
         id="path1082"
         inkscape:connector-curvature="0" />
      <path
         d="m 2454.6289,4185.0157 c 33.09,20.46 51.99,49.87 51.99,49.87 0,0 -34.75,-3.78 -67.84,-24.25 -33.08,-20.46 -51.98,-49.87 -51.98,-49.87 0,0 34.74,3.78 67.83,24.25"
         style="fill:#414041;fill-opacity:1;fill-rule:nonzero;stroke:none"
         id="path1084"
         inkscape:connector-curvature="0" />
      <path
         d="m 2598.0589,4424.0157 c 14.26,58.99 11.18,110.36 11.18,110.36 0,0 -26.21,-44.29 -40.47,-103.28 -14.26,-59 -11.18,-110.36 -11.18,-110.36 0,0 26.21,44.28 40.47,103.28"
         style="fill:#414041;fill-opacity:1;fill-rule:nonzero;stroke:none"
         id="path1086"
         inkscape:connector-curvature="0" />
      <path
         d="m -126.38111,4528.5157 v 405.44 c 0,24.22 -24.88,43.84 -55.63,43.84 h -639.42 c -30.72,0 -55.63,-19.62 -55.63,-43.84 v -390.84 l 251.97,-252.59 -251.97,-238.33 v -405.44 c 0,-24.23 24.88,-43.84 55.63,-43.84 h 639.42 c 30.72,0 55.63,19.61 55.63,43.84 v 390.83 l -251.97,252.6 251.97,238.33"
         style="fill:#f78f11;fill-opacity:1;fill-rule:nonzero;stroke:none"
         id="path1088"
         inkscape:connector-curvature="0" />
      <path
         d="m -945.76111,3602.9157 h 888.090001 v 130.6 H -945.76111 v -130.6"
         style="fill:#39a1a0;fill-opacity:1;fill-rule:nonzero;stroke:none"
         id="path1090"
         inkscape:connector-curvature="0" />
      <path
         d="M -57.671109,4977.7957 H -945.76111 v -130.6 h 888.090001 v 130.6"
         style="fill:#39a1a0;fill-opacity:1;fill-rule:nonzero;stroke:none"
         id="path1092"
         inkscape:connector-curvature="0" />
      <path
         d="m -287.48111,3986.1857 h -439.22 v -145 h 449.96 v 145.11 l -10.74,-0.11"
         style="fill:#3e4159;fill-opacity:1;fill-rule:nonzero;stroke:none"
         id="path1094"
         inkscape:connector-curvature="0" />
      <path
         d="m -726.70111,4698.7657 v -93.47 l 224.62,-225.17 225.34,213.14 v 105.5 h -449.96"
         style="fill:#3e4159;fill-opacity:1;fill-rule:nonzero;stroke:none"
         id="path1096"
         inkscape:connector-curvature="0" />
      <path
         d="M -25.911109,781.58573 H -977.73111 l 0.2,912.59997 951.820001,-0.2 z m 0.2,1052.30997 H -977.73111 c -77.18999,0 -139.75999,-62.57 -139.75999,-139.71 V 781.38573 c 0,-77.1 62.57,-139.698 139.75999,-139.698 h 952.020001 c 77.19,0 139.749999,62.598 139.749999,139.698 v 912.79997 c 0,77.14 -62.559999,139.71 -139.749999,139.71"
         style="fill:#f78f11;fill-opacity:1;fill-rule:nonzero;stroke:none"
         id="path1098"
         inkscape:connector-curvature="0" />
      <path
         d="m -977.73111,781.58573 h 951.820001 l 0.2,912.39997 -951.820001,0.2 -0.2,-912.59997"
         style="fill:#ffffff;fill-opacity:1;fill-rule:nonzero;stroke:none"
         id="path1100"
         inkscape:connector-curvature="0" />
      <path
         d="M -84.101109,641.88773 H -919.33111 v -116.403 h 835.230001 v 116.403"
         style="fill:#39a1a0;fill-opacity:1;fill-rule:nonzero;stroke:none"
         id="path1102"
         inkscape:connector-curvature="0" />
      <path
         d="m -486.87111,1557.5857 h -29.7 v 84.8 h 29.7 v -84.8"
         style="fill:#3e4159;fill-opacity:1;fill-rule:nonzero;stroke:none"
         id="path1104"
         inkscape:connector-curvature="0" />
      <path
         d="m -486.87111,833.18573 h -29.7 v 84.8 h 29.7 v -84.8"
         style="fill:#3e4159;fill-opacity:1;fill-rule:nonzero;stroke:none"
         id="path1106"
         inkscape:connector-curvature="0" />
      <path
         d="m -821.51111,1222.8857 h -84.81 v 29.7 h 84.81 v -29.7"
         style="fill:#3e4159;fill-opacity:1;fill-rule:nonzero;stroke:none"
         id="path1108"
         inkscape:connector-curvature="0" />
      <path
         d="m -97.121109,1222.8857 h -84.810001 v 29.7 h 84.810001 v -29.7"
         style="fill:#3e4159;fill-opacity:1;fill-rule:nonzero;stroke:none"
         id="path1110"
         inkscape:connector-curvature="0" />
      <path
         d="m -220.27111,1964.6957 h -562.9 l -91.44,-128.74 h 745.78 l -91.44,128.74"
         style="fill:#39a1a0;fill-opacity:1;fill-rule:nonzero;stroke:none"
         id="path1112"
         inkscape:connector-curvature="0" />
      <path
         d="m -412.42111,1032.7857 c -6.12,0 -12.06,3.2 -15.21,9 l -94.28,172.1 c -4.59,8.4 -1.52,19 6.88,23.6 8.39,4.5 18.92,1.5 23.51,-6.9 l 94.28,-172.2 c 4.6,-8.4 1.51,-18.9 -6.87,-23.5 -2.65,-1.4 -5.5,-2.1 -8.31,-2.1"
         style="fill:#3e4159;fill-opacity:1;fill-rule:nonzero;stroke:none"
         id="path1114"
         inkscape:connector-curvature="0" />
      <path
         d="m -507.16111,1211.0857 c -5.06,0 -10.07,2.2 -13.49,6.5 -6.01,7.4 -4.83,18.3 2.61,24.3 l 252.33,203.4 c 7.45,6 18.36,4.8 24.36,-2.6 6,-7.5 4.83,-18.4 -2.62,-24.4 l -252.33,-203.3 c -3.2,-2.6 -7.04,-3.9 -10.86,-3.9"
         style="fill:#3e4159;fill-opacity:1;fill-rule:nonzero;stroke:none"
         id="path1116"
         inkscape:connector-curvature="0" />
      <path
         d="m -457.71111,1229.3857 c 0,26.7 -21.59,48.3 -48.23,48.3 -26.63,0 -48.21,-21.6 -48.21,-48.3 0,-26.6 21.58,-48.2 48.21,-48.2 26.64,0 48.23,21.6 48.23,48.2"
         style="fill:#3e4159;fill-opacity:1;fill-rule:nonzero;stroke:none"
         id="path1118"
         inkscape:connector-curvature="0" />
      <path
         d="m -501.72111,9855.1857 c -290.34,0 -525.69999,235.3003 -525.69999,525.7003 0,290.3 235.35999,525.7 525.69999,525.7 290.34,0 525.710001,-235.4 525.710001,-525.7 0,-290.4 -235.370001,-525.7003 -525.710001,-525.7003 z m 0,1198.8003 c -371.75,0 -673.11999,-301.4 -673.11999,-673.1 0,-371.8 301.36999,-673.1403 673.11999,-673.1403 371.75,0 673.12,301.3403 673.12,673.1403 0,371.7 -301.37,673.1 -673.12,673.1"
         style="fill:#fbc707;fill-opacity:1;fill-rule:nonzero;stroke:none"
         id="path1172"
         inkscape:connector-curvature="0" />
      <path
         d="m -501.72111,10906.586 c -290.34,0 -525.69999,-235.4 -525.69999,-525.7 0,-290.4 235.35999,-525.7003 525.69999,-525.7003 290.34,0 525.710001,235.3003 525.710001,525.7003 0,290.3 -235.370001,525.7 -525.710001,525.7"
         style="fill:#ffffff;fill-opacity:1;fill-rule:nonzero;stroke:none"
         id="path1174"
         inkscape:connector-curvature="0" />
      <path
         d="m -486.87111,10755.786 h -29.7 v 98.6 h 29.7 v -98.6"
         style="fill:#2b4f75;fill-opacity:1;fill-rule:nonzero;stroke:none"
         id="path1176"
         inkscape:connector-curvature="0" />
      <path
         d="m -486.87111,9907.3857 h -29.7 v 98.6003 h 29.7 v -98.6003"
         style="fill:#2b4f75;fill-opacity:1;fill-rule:nonzero;stroke:none"
         id="path1178"
         inkscape:connector-curvature="0" />
      <path
         d="m -702.04111,10698.186 -49.29,85.3 25.72,14.9 49.29,-85.4 -25.72,-14.8"
         style="fill:#2b4f75;fill-opacity:1;fill-rule:nonzero;stroke:none"
         id="path1180"
         inkscape:connector-curvature="0" />
      <path
         d="m -277.83111,9963.3857 -49.29,85.4003 25.72,14.8 49.29,-85.4003 -25.72,-14.8"
         style="fill:#2b4f75;fill-opacity:1;fill-rule:nonzero;stroke:none"
         id="path1182"
         inkscape:connector-curvature="0" />
      <path
         d="m -833.83111,10555.486 -85.38,49.3 14.85,25.7 85.37,-49.3 -14.84,-25.7"
         style="fill:#2b4f75;fill-opacity:1;fill-rule:nonzero;stroke:none"
         id="path1184"
         inkscape:connector-curvature="0" />
      <path
         d="m -99.081109,10131.286 -85.380001,49.3 14.85,25.7 85.380001,-49.3 -14.85,-25.7"
         style="fill:#2b4f75;fill-opacity:1;fill-rule:nonzero;stroke:none"
         id="path1186"
         inkscape:connector-curvature="0" />
      <path
         d="m -876.64111,10365.986 h -98.58 v 29.7 h 98.58 v -29.7"
         style="fill:#2b4f75;fill-opacity:1;fill-rule:nonzero;stroke:none"
         id="path1188"
         inkscape:connector-curvature="0" />
      <path
         d="m -28.221109,10365.986 h -98.580001 v 29.7 h 98.580001 v -29.7"
         style="fill:#2b4f75;fill-opacity:1;fill-rule:nonzero;stroke:none"
         id="path1190"
         inkscape:connector-curvature="0" />
      <path
         d="m -904.36111,10131.286 -14.85,25.7 85.38,49.3 14.84,-25.7 -85.37,-49.3"
         style="fill:#2b4f75;fill-opacity:1;fill-rule:nonzero;stroke:none"
         id="path1192"
         inkscape:connector-curvature="0" />
      <path
         d="m -169.61111,10555.486 -14.85,25.7 85.380001,49.3 14.85,-25.7 -85.380001,-49.3"
         style="fill:#2b4f75;fill-opacity:1;fill-rule:nonzero;stroke:none"
         id="path1194"
         inkscape:connector-curvature="0" />
      <path
         d="m -725.61111,9963.3857 -25.72,14.8 49.29,85.4003 25.72,-14.8 -49.29,-85.4003"
         style="fill:#2b4f75;fill-opacity:1;fill-rule:nonzero;stroke:none"
         id="path1196"
         inkscape:connector-curvature="0" />
      <path
         d="m -301.40111,10698.186 -25.72,14.8 49.29,85.4 25.72,-14.9 -49.29,-85.3"
         style="fill:#2b4f75;fill-opacity:1;fill-rule:nonzero;stroke:none"
         id="path1198"
         inkscape:connector-curvature="0" />
      <path
         d="m -447.56111,10380.886 c 0,29.9 -24.25,54.1 -54.16,54.1 -29.91,0 -54.16,-24.2 -54.16,-54.1 0,-29.9 24.25,-54.2 54.16,-54.2 29.91,0 54.16,24.3 54.16,54.2"
         style="fill:#39a1a0;fill-opacity:1;fill-rule:nonzero;stroke:none"
         id="path1200"
         inkscape:connector-curvature="0" />
      <path
         d="m -476.37111,10380.886 c 0,14 -11.35,25.3 -25.35,25.3 -14,0 -25.35,-11.3 -25.35,-25.3 0,-14 11.35,-25.4 25.35,-25.4 14,0 25.35,11.4 25.35,25.4"
         style="fill:#ffffff;fill-opacity:1;fill-rule:nonzero;stroke:none"
         id="path1202"
         inkscape:connector-curvature="0" />
      <path
         d="m -670.69111,10361.086 c 51.03,2.8 91.33,24.8 91.33,24.8 0,0 -42.44,17.5 -93.47,14.7 -51.02,-2.7 -91.32,-24.7 -91.32,-24.7 0,0 42.44,-17.5 93.46,-14.8"
         style="fill:#f78f11;fill-opacity:1;fill-rule:nonzero;stroke:none"
         id="path1204"
         inkscape:connector-curvature="0" />
      <path
         d="m -418.48111,10592.686 c 18.5,77.6 14.25,145 14.25,145 0,0 -34.24,-58.2 -52.75,-135.8 -18.5,-77.5 -14.25,-145 -14.25,-145 0,0 34.25,58.3 52.75,135.8"
         style="fill:#f78f11;fill-opacity:1;fill-rule:nonzero;stroke:none"
         id="path1206"
         inkscape:connector-curvature="0" />
      <path
         d="m -641.05111,6999.0857 v -648.38 c 0,-66.1 62.38,-119.68 139.33,-119.68 76.95,0 139.33,53.58 139.33,119.68 v 648.38 h -278.66"
         style="fill:#fbc707;fill-opacity:1;fill-rule:nonzero;stroke:none"
         id="path1208"
         inkscape:connector-curvature="0" />
      <path
         d="m -473.29111,6733.5457 c 0,15.7 -12.73,28.42 -28.43,28.42 -15.7,0 -28.42,-12.72 -28.42,-28.42 0,-15.7 12.72,-28.43 28.42,-28.43 15.7,0 28.43,12.73 28.43,28.43"
         style="fill:#ffffff;fill-opacity:1;fill-rule:nonzero;stroke:none"
         id="path1210"
         inkscape:connector-curvature="0" />
      <path
         d="m -473.29111,6472.2357 c 0,15.7 -12.73,28.42 -28.43,28.42 -15.7,0 -28.42,-12.72 -28.42,-28.42 0,-15.7 12.72,-28.42 28.42,-28.42 15.7,0 28.43,12.72 28.43,28.42"
         style="fill:#ffffff;fill-opacity:1;fill-rule:nonzero;stroke:none"
         id="path1212"
         inkscape:connector-curvature="0" />
      <path
         d="m -364.06111,8186.7157 h -275.32 v -540.01 h 275.32 v 540.01"
         style="fill:#fbc707;fill-opacity:1;fill-rule:nonzero;stroke:none"
         id="path1214"
         inkscape:connector-curvature="0" />
      <path
         d="m -501.72111,7029.3757 c -163.22,0 -295.54,132.32 -295.54,295.55 0,163.22 132.32,295.54 295.54,295.54 163.23,0 295.55,-132.32 295.55,-295.54 0,-163.23 -132.32,-295.55 -295.55,-295.55 z m 0,683.45 c -214.23,0 -387.9,-173.67 -387.9,-387.9 0,-214.24 173.67,-387.91 387.9,-387.91 214.24,0 387.9,173.67 387.9,387.91 0,214.23 -173.66,387.9 -387.9,387.9"
         style="fill:#39a1a0;fill-opacity:1;fill-rule:nonzero;stroke:none"
         id="path1216"
         inkscape:connector-curvature="0" />
      <path
         d="m -494.30111,7522.6757 h -14.84 v 38.19 h 14.84 v -38.19"
         style="fill:#3e4159;fill-opacity:1;fill-rule:nonzero;stroke:none"
         id="path1218"
         inkscape:connector-curvature="0" />
      <path
         d="m -494.30111,7088.9757 h -14.84 v 38.2 h 14.84 v -38.2"
         style="fill:#3e4159;fill-opacity:1;fill-rule:nonzero;stroke:none"
         id="path1220"
         inkscape:connector-curvature="0" />
      <path
         d="m -607.02111,7492.4657 -19.1,33.08 12.86,7.42 19.1,-33.07 -12.86,-7.43"
         style="fill:#3e4159;fill-opacity:1;fill-rule:nonzero;stroke:none"
         id="path1222"
         inkscape:connector-curvature="0" />
      <path
         d="m -390.17111,7116.8757 -19.1,33.08 12.86,7.42 19.09,-33.08 -12.85,-7.42"
         style="fill:#3e4159;fill-opacity:1;fill-rule:nonzero;stroke:none"
         id="path1224"
         inkscape:connector-curvature="0" />
      <path
         d="m -676.69111,7417.3657 -33.07,19.1 7.42,12.86 33.07,-19.1 -7.42,-12.86"
         style="fill:#3e4159;fill-opacity:1;fill-rule:nonzero;stroke:none"
         id="path1226"
         inkscape:connector-curvature="0" />
      <path
         d="m -301.10111,7200.5257 -33.08,19.09 7.43,12.86 33.08,-19.1 -7.43,-12.85"
         style="fill:#3e4159;fill-opacity:1;fill-rule:nonzero;stroke:none"
         id="path1228"
         inkscape:connector-curvature="0" />
      <path
         d="m -699.47111,7317.4957 h -38.19 v 14.85 h 38.19 v -14.85"
         style="fill:#3e4159;fill-opacity:1;fill-rule:nonzero;stroke:none"
         id="path1230"
         inkscape:connector-curvature="0" />
      <path
         d="m -265.77111,7317.4957 h -38.2 v 14.85 h 38.2 v -14.85"
         style="fill:#3e4159;fill-opacity:1;fill-rule:nonzero;stroke:none"
         id="path1232"
         inkscape:connector-curvature="0" />
      <path
         d="m -702.34111,7200.5257 -7.42,12.85 33.07,19.1 7.42,-12.86 -33.07,-19.09"
         style="fill:#3e4159;fill-opacity:1;fill-rule:nonzero;stroke:none"
         id="path1234"
         inkscape:connector-curvature="0" />
      <path
         d="m -326.75111,7417.3657 -7.43,12.86 33.08,19.1 7.43,-12.86 -33.08,-19.1"
         style="fill:#3e4159;fill-opacity:1;fill-rule:nonzero;stroke:none"
         id="path1236"
         inkscape:connector-curvature="0" />
      <path
         d="m -613.26111,7116.8757 -12.86,7.42 19.1,33.08 12.86,-7.42 -19.1,-33.08"
         style="fill:#3e4159;fill-opacity:1;fill-rule:nonzero;stroke:none"
         id="path1238"
         inkscape:connector-curvature="0" />
      <path
         d="m -396.41111,7492.4657 -12.86,7.43 19.1,33.07 12.85,-7.42 -19.09,-33.08"
         style="fill:#3e4159;fill-opacity:1;fill-rule:nonzero;stroke:none"
         id="path1240"
         inkscape:connector-curvature="0" />
      <path
         d="m -633.25111,8410.4957 c -21.31,0 -38.66,-15.43 -38.66,-34.41 v -141.62 c 0,-18.97 17.35,-34.41 38.66,-34.41 h 263.06 c 21.31,0 38.66,15.44 38.66,34.41 v 141.62 c 0,18.98 -17.35,34.41 -38.66,34.41 z m 263.06,-240.13 h -263.06 c -37.69,0 -68.35,28.75 -68.35,64.1 v 141.62 c 0,35.35 30.66,64.11 68.35,64.11 h 263.06 c 37.69,0 68.35,-28.76 68.35,-64.11 v -141.62 c 0,-35.35 -30.66,-64.1 -68.35,-64.1"
         style="fill:#3e4159;fill-opacity:1;fill-rule:nonzero;stroke:none"
         id="path1242"
         inkscape:connector-curvature="0" />
      <path
         d="m -501.72111,8180.9157 c -8.2,0 -14.85,6.65 -14.85,14.85 v 82.97 c 0,8.2 6.65,14.84 14.85,14.84 8.2,0 14.85,-6.64 14.85,-14.84 v -82.97 c 0,-8.2 -6.65,-14.85 -14.85,-14.85"
         style="fill:#3e4159;fill-opacity:1;fill-rule:nonzero;stroke:none"
         id="path1244"
         inkscape:connector-curvature="0" />
      <path
         d="m -473.29111,7324.9257 c 0,15.69 -12.73,28.42 -28.43,28.42 -15.7,0 -28.42,-12.73 -28.42,-28.42 0,-15.7 12.72,-28.43 28.42,-28.43 15.7,0 28.43,12.73 28.43,28.43"
         style="fill:#f78f11;fill-opacity:1;fill-rule:nonzero;stroke:none"
         id="path1246"
         inkscape:connector-curvature="0" />
      <path
         d="m -497.52111,7322.4657 c -1.65,0 -3.33,0.42 -4.88,1.29 -4.75,2.7 -6.42,8.75 -3.72,13.5 l 76.91,135.44 c 2.71,4.74 8.74,6.41 13.5,3.71 4.75,-2.7 6.42,-8.74 3.72,-13.49 l -76.91,-135.44 c -1.83,-3.21 -5.17,-5.01 -8.62,-5.01"
         style="fill:#f78f11;fill-opacity:1;fill-rule:nonzero;stroke:none"
         id="path1248"
         inkscape:connector-curvature="0" />
      <path
         d="m -505.88111,7317.4557 c -1.54,0 -3.11,0.36 -4.58,1.13 l -108.68,56.85 c -4.84,2.53 -6.71,8.51 -4.18,13.35 2.54,4.85 8.51,6.72 13.36,4.19 l 108.68,-56.85 c 4.84,-2.54 6.72,-8.52 4.18,-13.36 -1.77,-3.38 -5.21,-5.31 -8.78,-5.31"
         style="fill:#f78f11;fill-opacity:1;fill-rule:nonzero;stroke:none"
         id="path1250"
         inkscape:connector-curvature="0" />
      <path
         d="m -490.55111,7324.9257 c 0,6.16 -5,11.16 -11.17,11.16 -6.16,0 -11.16,-5 -11.16,-11.16 0,-6.17 5,-11.17 11.16,-11.17 6.17,0 11.17,5 11.17,11.17"
         style="fill:#ffffff;fill-opacity:1;fill-rule:nonzero;stroke:none"
         id="path1252"
         inkscape:connector-curvature="0" />
      <path
         d="m 5174.8369,9478.7961 -10.9688,-9.2504 14.0306,-16.6361 10.9689,9.2503 -14.0307,16.6362"
         style="fill:#3e4159;fill-opacity:1;fill-rule:nonzero;stroke:none;stroke-width:0.14762786"
         id="path1254"
         inkscape:connector-curvature="0" />
      <path
         d="m 5175.7981,9491.104 c -3.3438,3.9638 -9.2669,4.4655 -13.2301,1.1234 l -9.8689,-8.3235 c -3.9638,-3.3421 -4.4666,-9.2665 -1.1237,-13.2303 3.3429,-3.9624 9.2658,-4.4657 13.2301,-1.1234 l 9.8676,8.3233 c 3.9638,3.3436 4.4673,9.2665 1.125,13.2305"
         style="fill:#f78f11;fill-opacity:1;fill-rule:nonzero;stroke:none;stroke-width:0.14762786"
         id="path1256"
         inkscape:connector-curvature="0" />
      <path
         d="m 5321.6883,9478.7961 10.9687,-9.2504 -14.0305,-16.6361 -10.9687,9.2503 14.0305,16.6362"
         style="fill:#3e4159;fill-opacity:1;fill-rule:nonzero;stroke:none;stroke-width:0.14762786"
         id="path1258"
         inkscape:connector-curvature="0" />
      <path
         d="m 5320.7286,9491.104 c 3.3425,3.9638 9.2652,4.4655 13.229,1.1234 l 9.869,-8.3235 c 3.9638,-3.3421 4.4672,-9.2665 1.1234,-13.2303 -3.3421,-3.9624 -9.2666,-4.4657 -13.2289,-1.1234 l -9.8689,8.3233 c -3.9639,3.3436 -4.4672,9.2665 -1.1236,13.2305"
         style="fill:#f78f11;fill-opacity:1;fill-rule:nonzero;stroke:none;stroke-width:0.14762786"
         id="path1260"
         inkscape:connector-curvature="0" />
      <path
         d="m 5261.4916,9508.7114 h -21.3943 v -30.7301 h 21.3943 v 30.7301"
         style="fill:#3e4159;fill-opacity:1;fill-rule:nonzero;stroke:none;stroke-width:0.14762786"
         id="path1262"
         inkscape:connector-curvature="0" />
      <path
         d="m 5250.793,9318.8044 c -41.8909,0 -75.8498,33.9605 -75.8498,75.8513 0,41.8907 33.9589,75.8511 75.8498,75.8511 41.8923,0 75.8511,-33.9604 75.8511,-75.8511 0,-41.8908 -33.9588,-75.8513 -75.8511,-75.8513 z m 0,173.8747 c -54.1352,0 -98.0222,-43.8868 -98.0222,-98.0234 0,-54.1368 43.887,-98.0221 98.0222,-98.0221 54.1381,0 98.0234,43.8853 98.0234,98.0221 0,54.1366 -43.8853,98.0234 -98.0234,98.0234"
         style="fill:#39a1a0;fill-opacity:1;fill-rule:nonzero;stroke:none;stroke-width:0.14762786"
         id="path1264"
         inkscape:connector-curvature="0" />
      <path
         d="m 5250.793,9470.5068 c -41.8909,0 -75.8498,-33.9604 -75.8498,-75.8511 0,-41.8908 33.9589,-75.8513 75.8498,-75.8513 41.8923,0 75.8511,33.9605 75.8511,75.8513 0,41.8907 -33.9588,75.8511 -75.8511,75.8511"
         style="fill:#ffffff;fill-opacity:1;fill-rule:nonzero;stroke:none;stroke-width:0.14762786"
         id="path1266"
         inkscape:connector-curvature="0" />
      <path
         d="m 5252.9867,9446.7418 h -4.3844 v 15.6366 h 4.3844 v -15.6366"
         style="fill:#3e4159;fill-opacity:1;fill-rule:nonzero;stroke:none;stroke-width:0.14762786"
         id="path1268"
         inkscape:connector-curvature="0" />
      <path
         d="m 5252.9867,9326.9343 h -4.3844 v 15.6352 h 4.3844 v -15.6352"
         style="fill:#3e4159;fill-opacity:1;fill-rule:nonzero;stroke:none;stroke-width:0.14762786"
         id="path1270"
         inkscape:connector-curvature="0" />
      <path
         d="m 5222.8528,9438.668 -7.8182,13.5417 3.7969,2.191 7.8169,-13.5404 -3.7956,-2.1923"
         style="fill:#3e4159;fill-opacity:1;fill-rule:nonzero;stroke:none;stroke-width:0.14762786"
         id="path1272"
         inkscape:connector-curvature="0" />
      <path
         d="m 5282.7574,9334.9106 -7.8199,13.5419 3.7971,2.1922 7.8183,-13.5417 -3.7955,-2.1924"
         style="fill:#3e4159;fill-opacity:1;fill-rule:nonzero;stroke:none;stroke-width:0.14762786"
         id="path1274"
         inkscape:connector-curvature="0" />
      <path
         d="m 5204.5899,9418.8001 -13.5405,7.8184 2.1909,3.797 13.5417,-7.8184 -2.1921,-3.797"
         style="fill:#3e4159;fill-opacity:1;fill-rule:nonzero;stroke:none;stroke-width:0.14762786"
         id="path1276"
         inkscape:connector-curvature="0" />
      <path
         d="m 5308.347,9358.8973 -13.5416,7.8167 2.1922,3.7971 13.542,-7.8184 -2.1926,-3.7954"
         style="fill:#3e4159;fill-opacity:1;fill-rule:nonzero;stroke:none;stroke-width:0.14762786"
         id="path1278"
         inkscape:connector-curvature="0" />
      <path
         d="m 5198.7069,9392.4649 h -15.6352 v 4.3829 h 15.6352 v -4.3829"
         style="fill:#3e4159;fill-opacity:1;fill-rule:nonzero;stroke:none;stroke-width:0.14762786"
         id="path1280"
         inkscape:connector-curvature="0" />
      <path
         d="m 5318.5157,9392.4649 h -15.6351 v 4.3829 h 15.6351 v -4.3829"
         style="fill:#3e4159;fill-opacity:1;fill-rule:nonzero;stroke:none;stroke-width:0.14762786"
         id="path1282"
         inkscape:connector-curvature="0" />
      <path
         d="m 5193.2403,9358.8973 -2.1909,3.7954 13.5405,7.8184 2.1921,-3.7971 -13.5417,-7.8167"
         style="fill:#3e4159;fill-opacity:1;fill-rule:nonzero;stroke:none;stroke-width:0.14762786"
         id="path1284"
         inkscape:connector-curvature="0" />
      <path
         d="m 5296.9976,9418.8001 -2.1922,3.797 13.5416,7.8184 2.1926,-3.797 -13.542,-7.8184"
         style="fill:#3e4159;fill-opacity:1;fill-rule:nonzero;stroke:none;stroke-width:0.14762786"
         id="path1286"
         inkscape:connector-curvature="0" />
      <path
         d="m 5218.8315,9334.9106 -3.7969,2.1924 7.8182,13.5417 3.7956,-2.1922 -7.8169,-13.5419"
         style="fill:#3e4159;fill-opacity:1;fill-rule:nonzero;stroke:none;stroke-width:0.14762786"
         id="path1288"
         inkscape:connector-curvature="0" />
      <path
         d="m 5278.7346,9438.668 -3.7971,2.1923 7.8199,13.5404 3.7955,-2.191 -7.8183,-13.5417"
         style="fill:#3e4159;fill-opacity:1;fill-rule:nonzero;stroke:none;stroke-width:0.14762786"
         id="path1290"
         inkscape:connector-curvature="0" />
      <path
         d="m 5261.1018,9394.6557 c 0,5.6926 -4.6147,10.3088 -10.3088,10.3088 -5.6926,0 -10.3073,-4.6162 -10.3073,-10.3088 0,-5.6926 4.6147,-10.3073 10.3073,-10.3073 5.6941,0 10.3088,4.6147 10.3088,10.3073"
         style="fill:#f78f11;fill-opacity:1;fill-rule:nonzero;stroke:none;stroke-width:0.14762786"
         id="path1292"
         inkscape:connector-curvature="0" />
      <path
         d="m 5270.6002,9521.4592 c 0,6.7863 -5.5022,12.2884 -12.2885,12.2884 h -14.7836 c -6.7863,0 -12.2885,-5.5021 -12.2885,-12.2884 v -3.5624 c 0,-6.7863 5.5022,-12.2884 12.2885,-12.2884 h 14.7836 c 6.7863,0 12.2885,5.5021 12.2885,12.2884 v 3.5624"
         style="fill:#f78f11;fill-opacity:1;fill-rule:nonzero;stroke:none;stroke-width:0.14762786"
         id="path1294"
         inkscape:connector-curvature="0" />
      <path
         d="m 5254.2667,9403.2196 -20.7638,27.6845 7.6321,-33.0081 9.658,-3.2403 3.4737,8.5639"
         style="fill:#f78f11;fill-opacity:1;fill-rule:nonzero;stroke:none;stroke-width:0.14762786"
         id="path1296"
         inkscape:connector-curvature="0" />
      <path
         d="m 5255.4668,9394.6557 c 0,2.582 -2.0918,4.6738 -4.6738,4.6738 -2.5806,0 -4.6725,-2.0918 -4.6725,-4.6738 0,-2.5806 2.0919,-4.674 4.6725,-4.674 2.582,0 4.6738,2.0934 4.6738,4.674"
         style="fill:#ffffff;fill-opacity:1;fill-rule:nonzero;stroke:none;stroke-width:0.14762786"
         id="path1298"
         inkscape:connector-curvature="0" />
      <path
         d="m -3002.6797,2558.2856 c 33.85,46.4 14.56,116.1 -48.56,148 -63.13,32 -130.69,6.3 -148.09,-48.5 l -70,-220.5 c -6.72,-21.199 2.62,-74.898 35.59,-91.598 32.97,-16.601 81.79,7.598 94.86,25.598 l 136.2,187"
         style="fill:#3e4159;fill-opacity:1;fill-rule:nonzero;stroke:none"
         id="path1300"
         inkscape:connector-curvature="0" />
      <path
         d="m -2593.0697,2558.2856 c -33.85,46.4 -14.57,116.1 48.56,148 63.13,32 130.69,6.3 148.09,-48.5 l 70,-220.5 c 6.72,-21.199 -2.62,-74.898 -35.59,-91.598 -32.97,-16.601 -81.79,7.598 -94.86,25.598 l -136.2,187"
         style="fill:#3e4159;fill-opacity:1;fill-rule:nonzero;stroke:none"
         id="path1302"
         inkscape:connector-curvature="0" />
      <path
         d="m -2988.1697,3480.2856 c 0,148.06 -123.46,268.06 -275.76,268.06 -152.297,0 -275.754,-120 -275.754,-268.06 0,-148 123.457,-268 275.754,-268 152.3,0 275.76,120 275.76,268"
         style="fill:#3e4159;fill-opacity:1;fill-rule:nonzero;stroke:none"
         id="path1304"
         inkscape:connector-curvature="0" />
      <path
         d="m -2097.1197,3480.2856 c 0,148.06 -123.47,268.06 -275.76,268.06 -152.3,0 -275.76,-120 -275.76,-268.06 0,-148 123.46,-268 275.76,-268 152.29,0 275.76,120 275.76,268"
         style="fill:#3e4159;fill-opacity:1;fill-rule:nonzero;stroke:none"
         id="path1306"
         inkscape:connector-curvature="0" />
      <path
         d="m -2810.1897,2643.5856 c -274.13,0 -496.36,222.2 -496.36,496.4 0,274.1 222.23,496.32 496.36,496.32 274.14,0 496.37,-222.22 496.37,-496.32 0,-274.2 -222.23,-496.4 -496.37,-496.4 z m 0,1106.48 c -336.96,0 -610.115,-273.18 -610.115,-610.08 0,-337 273.155,-610.2 610.115,-610.2 336.96,0 610.11,273.2 610.11,610.2 0,336.9 -273.15,610.08 -610.11,610.08"
         style="fill:#fbc707;fill-opacity:1;fill-rule:nonzero;stroke:none"
         id="path1308"
         inkscape:connector-curvature="0" />
      <path
         d="m -2810.1897,3636.3056 c -274.13,0 -496.36,-222.22 -496.36,-496.32 0,-274.2 222.23,-496.4 496.36,-496.4 274.14,0 496.37,222.2 496.37,496.4 0,274.1 -222.23,496.32 -496.37,496.32"
         style="fill:#ffffff;fill-opacity:1;fill-rule:nonzero;stroke:none"
         id="path1310"
         inkscape:connector-curvature="0" />
      <path
         d="m -2795.3397,3476.0856 h -29.7 v 88.43 h 29.7 v -88.43"
         style="fill:#39a1a0;fill-opacity:1;fill-rule:nonzero;stroke:none"
         id="path1312"
         inkscape:connector-curvature="0" />
      <path
         d="m -2795.3397,2715.3856 h -29.7 v 88.4 h 29.7 v -88.4"
         style="fill:#39a1a0;fill-opacity:1;fill-rule:nonzero;stroke:none"
         id="path1314"
         inkscape:connector-curvature="0" />
      <path
         d="m -2991.1397,3423.6856 -44.19,76.5 25.71,14.9 44.2,-76.6 -25.72,-14.8"
         style="fill:#39a1a0;fill-opacity:1;fill-rule:nonzero;stroke:none"
         id="path1316"
         inkscape:connector-curvature="0" />
      <path
         d="m -2610.7597,2764.7856 -44.2,76.6 25.72,14.9 44.2,-76.6 -25.72,-14.9"
         style="fill:#39a1a0;fill-opacity:1;fill-rule:nonzero;stroke:none"
         id="path1318"
         inkscape:connector-curvature="0" />
      <path
         d="m -3108.7497,3295.1856 -76.55,44.2 14.85,25.7 76.55,-44.2 -14.85,-25.7"
         style="fill:#39a1a0;fill-opacity:1;fill-rule:nonzero;stroke:none"
         id="path1320"
         inkscape:connector-curvature="0" />
      <path
         d="m -2449.9197,2914.7856 -76.55,44.2 14.84,25.7 76.55,-44.2 -14.84,-25.7"
         style="fill:#39a1a0;fill-opacity:1;fill-rule:nonzero;stroke:none"
         id="path1322"
         inkscape:connector-curvature="0" />
      <path
         d="m -3146.3597,3125.0856 h -88.4 v 29.7 h 88.4 v -29.7"
         style="fill:#39a1a0;fill-opacity:1;fill-rule:nonzero;stroke:none"
         id="path1324"
         inkscape:connector-curvature="0" />
      <path
         d="m -2385.6197,3125.0856 h -88.39 v 29.7 h 88.39 v -29.7"
         style="fill:#39a1a0;fill-opacity:1;fill-rule:nonzero;stroke:none"
         id="path1326"
         inkscape:connector-curvature="0" />
      <path
         d="m -3170.4497,2914.7856 -14.85,25.7 76.55,44.2 14.85,-25.7 -76.55,-44.2"
         style="fill:#39a1a0;fill-opacity:1;fill-rule:nonzero;stroke:none"
         id="path1328"
         inkscape:connector-curvature="0" />
      <path
         d="m -2511.6297,3295.1856 -14.84,25.7 76.55,44.2 14.84,-25.7 -76.55,-44.2"
         style="fill:#39a1a0;fill-opacity:1;fill-rule:nonzero;stroke:none"
         id="path1330"
         inkscape:connector-curvature="0" />
      <path
         d="m -3009.6197,2764.7856 -25.71,14.9 44.19,76.6 25.72,-14.9 -44.2,-76.6"
         style="fill:#39a1a0;fill-opacity:1;fill-rule:nonzero;stroke:none"
         id="path1332"
         inkscape:connector-curvature="0" />
      <path
         d="m -2629.2397,3423.6856 -25.72,14.8 44.2,76.6 25.72,-14.9 -44.2,-76.5"
         style="fill:#39a1a0;fill-opacity:1;fill-rule:nonzero;stroke:none"
         id="path1334"
         inkscape:connector-curvature="0" />
      <path
         d="m -2817.5397,3176.7856 c -5.83,0 -11.37,3.5 -13.73,9.2 l -84.46,205.1 c -3.12,7.6 0.5,16.3 8.08,19.4 7.57,3.1 16.26,-0.5 19.39,-8.1 l 84.45,-205.1 c 3.12,-7.6 -0.5,-16.2 -8.08,-19.4 -1.85,-0.7 -3.76,-1.1 -5.65,-1.1"
         style="fill:#39a1a0;fill-opacity:1;fill-rule:nonzero;stroke:none"
         id="path1336"
         inkscape:connector-curvature="0" />
      <path
         d="m -2960.5797,3009.5856 c -4.88,0 -9.67,2.4 -12.5,6.9 -4.44,6.9 -2.44,16 4.46,20.5 l 120.64,77.5 c 6.9,4.5 16.09,2.5 20.52,-4.4 4.43,-6.9 2.44,-16.1 -4.46,-20.5 l -120.65,-77.6 c -2.48,-1.6 -5.26,-2.4 -8.01,-2.4"
         style="fill:#39a1a0;fill-opacity:1;fill-rule:nonzero;stroke:none"
         id="path1338"
         inkscape:connector-curvature="0" />
      <path
         d="m -2741.8097,3138.1856 c 0,33.3 -26.96,60.3 -60.22,60.3 -33.26,0 -60.23,-27 -60.23,-60.3 0,-33.2 26.97,-60.2 60.23,-60.2 33.26,0 60.22,27 60.22,60.2"
         style="fill:#fbc707;fill-opacity:1;fill-rule:nonzero;stroke:none"
         id="path1340"
         inkscape:connector-curvature="0" />
      <path
         d="m -2771.0597,3138.1856 c 0,17.1 -13.87,31 -30.97,31 -17.11,0 -30.97,-13.9 -30.97,-31 0,-17.1 13.86,-30.9 30.97,-30.9 17.1,0 30.97,13.8 30.97,30.9"
         style="fill:#39a1a0;fill-opacity:1;fill-rule:nonzero;stroke:none"
         id="path1342"
         inkscape:connector-curvature="0" />
      <g
         id="g439"
         inkscape:label="Grid_Polar:X6:Y5"
         transform="matrix(10.231975,0,10.531481,10.918861,4070.0463,8777.771)"
         style="stroke:#d1d1d1;stroke-opacity:1">
        <g
           id="g271"
           inkscape:label="MajorXGridlines"
           style="stroke:#d1d1d1;stroke-opacity:1">
          <path
             id="path261"
             inkscape:label="MajorXDiv1"
             style="fill:none;stroke:#d1d1d1;stroke-width:0.52916664;stroke-opacity:1"
             d="M 26.458333,0 V 132.29167"
             inkscape:connector-curvature="0" />
          <path
             id="path263"
             inkscape:label="MajorXDiv2"
             style="fill:none;stroke:#d1d1d1;stroke-width:0.52916664;stroke-opacity:1"
             d="M 52.916667,0 V 132.29167"
             inkscape:connector-curvature="0" />
          <path
             id="path265"
             inkscape:label="MajorXDiv3"
             style="fill:none;stroke:#d1d1d1;stroke-width:0.52916664;stroke-opacity:1"
             d="M 79.375,0 V 132.29167"
             inkscape:connector-curvature="0" />
          <path
             id="path267"
             inkscape:label="MajorXDiv4"
             style="fill:none;stroke:#d1d1d1;stroke-width:0.52916664;stroke-opacity:1"
             d="M 105.83333,0 V 132.29167"
             inkscape:connector-curvature="0" />
          <path
             id="path269"
             inkscape:label="MajorXDiv5"
             style="fill:none;stroke:#d1d1d1;stroke-width:0.52916664;stroke-opacity:1"
             d="M 132.29167,0 V 132.29167"
             inkscape:connector-curvature="0" />
        </g>
        <g
           id="g281"
           inkscape:label="MajorYGridlines"
           style="stroke:#d1d1d1;stroke-opacity:1">
          <path
             id="path273"
             inkscape:label="MajorYDiv1"
             style="fill:none;stroke:#d1d1d1;stroke-width:0.52916664;stroke-opacity:1"
             d="M 0,26.458333 H 158.75"
             inkscape:connector-curvature="0" />
          <path
             id="path275"
             inkscape:label="MajorYDiv2"
             style="fill:none;stroke:#d1d1d1;stroke-width:0.52916664;stroke-opacity:1"
             d="M 0,52.916667 H 158.75"
             inkscape:connector-curvature="0" />
          <path
             id="path277"
             inkscape:label="MajorYDiv3"
             style="fill:none;stroke:#d1d1d1;stroke-width:0.52916664;stroke-opacity:1"
             d="M 0,79.375 H 158.75"
             inkscape:connector-curvature="0" />
          <path
             id="path279"
             inkscape:label="MajorYDiv4"
             style="fill:none;stroke:#d1d1d1;stroke-width:0.52916664;stroke-opacity:1"
             d="M 0,105.83333 H 158.75"
             inkscape:connector-curvature="0" />
        </g>
        <g
           id="g295"
           inkscape:label="MinorXGridlines"
           style="stroke:#d1d1d1;stroke-opacity:1">
          <path
             id="path283"
             inkscape:label="MinorXDiv0:1"
             style="fill:none;stroke:#d1d1d1;stroke-width:0.26458332;stroke-opacity:1"
             d="M 13.229167,0 V 132.29167"
             inkscape:connector-curvature="0" />
          <path
             id="path285"
             inkscape:label="MinorXDiv1:1"
             style="fill:none;stroke:#d1d1d1;stroke-width:0.26458332;stroke-opacity:1"
             d="M 39.6875,0 V 132.29167"
             inkscape:connector-curvature="0" />
          <path
             id="path287"
             inkscape:label="MinorXDiv2:1"
             style="fill:none;stroke:#d1d1d1;stroke-width:0.26458332;stroke-opacity:1"
             d="M 66.145833,0 V 132.29167"
             inkscape:connector-curvature="0" />
          <path
             id="path289"
             inkscape:label="MinorXDiv3:1"
             style="fill:none;stroke:#d1d1d1;stroke-width:0.26458332;stroke-opacity:1"
             d="M 92.604167,0 V 132.29167"
             inkscape:connector-curvature="0" />
          <path
             id="path291"
             inkscape:label="MinorXDiv4:1"
             style="fill:none;stroke:#d1d1d1;stroke-width:0.26458332;stroke-opacity:1"
             d="M 119.0625,0 V 132.29167"
             inkscape:connector-curvature="0" />
          <path
             id="path293"
             inkscape:label="MinorXDiv5:1"
             style="fill:none;stroke:#d1d1d1;stroke-width:0.26458332;stroke-opacity:1"
             d="M 145.52083,0 V 132.29167"
             inkscape:connector-curvature="0" />
        </g>
        <g
           id="g393"
           inkscape:label="SubMinorXGridlines"
           style="stroke:#d1d1d1;stroke-opacity:1">
          <path
             id="path297"
             inkscape:label="SubminorXDiv0:0:1"
             style="fill:none;stroke:#d1d1d1;stroke-width:0.07937501;stroke-opacity:1"
             d="M 2.6458333,0 V 132.29167"
             inkscape:connector-curvature="0" />
          <path
             id="path299"
             inkscape:label="SubminorXDiv0:0:2"
             style="fill:none;stroke:#d1d1d1;stroke-width:0.07937501;stroke-opacity:1"
             d="M 5.2916667,0 V 132.29167"
             inkscape:connector-curvature="0" />
          <path
             id="path301"
             inkscape:label="SubminorXDiv0:0:3"
             style="fill:none;stroke:#d1d1d1;stroke-width:0.07937501;stroke-opacity:1"
             d="M 7.9375,0 V 132.29167"
             inkscape:connector-curvature="0" />
          <path
             id="path303"
             inkscape:label="SubminorXDiv0:0:4"
             style="fill:none;stroke:#d1d1d1;stroke-width:0.07937501;stroke-opacity:1"
             d="M 10.583333,0 V 132.29167"
             inkscape:connector-curvature="0" />
          <path
             id="path305"
             inkscape:label="SubminorXDiv0:1:1"
             style="fill:none;stroke:#d1d1d1;stroke-width:0.07937501;stroke-opacity:1"
             d="M 15.875,0 V 132.29167"
             inkscape:connector-curvature="0" />
          <path
             id="path307"
             inkscape:label="SubminorXDiv0:1:2"
             style="fill:none;stroke:#d1d1d1;stroke-width:0.07937501;stroke-opacity:1"
             d="M 18.520833,0 V 132.29167"
             inkscape:connector-curvature="0" />
          <path
             id="path309"
             inkscape:label="SubminorXDiv0:1:3"
             style="fill:none;stroke:#d1d1d1;stroke-width:0.07937501;stroke-opacity:1"
             d="M 21.166667,0 V 132.29167"
             inkscape:connector-curvature="0" />
          <path
             id="path311"
             inkscape:label="SubminorXDiv0:1:4"
             style="fill:none;stroke:#d1d1d1;stroke-width:0.07937501;stroke-opacity:1"
             d="M 23.8125,0 V 132.29167"
             inkscape:connector-curvature="0" />
          <path
             id="path313"
             inkscape:label="SubminorXDiv1:0:1"
             style="fill:none;stroke:#d1d1d1;stroke-width:0.07937501;stroke-opacity:1"
             d="M 29.104167,0 V 132.29167"
             inkscape:connector-curvature="0" />
          <path
             id="path315"
             inkscape:label="SubminorXDiv1:0:2"
             style="fill:none;stroke:#d1d1d1;stroke-width:0.07937501;stroke-opacity:1"
             d="M 31.75,0 V 132.29167"
             inkscape:connector-curvature="0" />
          <path
             id="path317"
             inkscape:label="SubminorXDiv1:0:3"
             style="fill:none;stroke:#d1d1d1;stroke-width:0.07937501;stroke-opacity:1"
             d="M 34.395833,0 V 132.29167"
             inkscape:connector-curvature="0" />
          <path
             id="path319"
             inkscape:label="SubminorXDiv1:0:4"
             style="fill:none;stroke:#d1d1d1;stroke-width:0.07937501;stroke-opacity:1"
             d="M 37.041667,0 V 132.29167"
             inkscape:connector-curvature="0" />
          <path
             id="path321"
             inkscape:label="SubminorXDiv1:1:1"
             style="fill:none;stroke:#d1d1d1;stroke-width:0.07937501;stroke-opacity:1"
             d="M 42.333333,0 V 132.29167"
             inkscape:connector-curvature="0" />
          <path
             id="path323"
             inkscape:label="SubminorXDiv1:1:2"
             style="fill:none;stroke:#d1d1d1;stroke-width:0.07937501;stroke-opacity:1"
             d="M 44.979167,0 V 132.29167"
             inkscape:connector-curvature="0" />
          <path
             id="path325"
             inkscape:label="SubminorXDiv1:1:3"
             style="fill:none;stroke:#d1d1d1;stroke-width:0.07937501;stroke-opacity:1"
             d="M 47.625,0 V 132.29167"
             inkscape:connector-curvature="0" />
          <path
             id="path327"
             inkscape:label="SubminorXDiv1:1:4"
             style="fill:none;stroke:#d1d1d1;stroke-width:0.07937501;stroke-opacity:1"
             d="M 50.270833,0 V 132.29167"
             inkscape:connector-curvature="0" />
          <path
             id="path329"
             inkscape:label="SubminorXDiv2:0:1"
             style="fill:none;stroke:#d1d1d1;stroke-width:0.07937501;stroke-opacity:1"
             d="M 55.5625,0 V 132.29167"
             inkscape:connector-curvature="0" />
          <path
             id="path331"
             inkscape:label="SubminorXDiv2:0:2"
             style="fill:none;stroke:#d1d1d1;stroke-width:0.07937501;stroke-opacity:1"
             d="M 58.208333,0 V 132.29167"
             inkscape:connector-curvature="0" />
          <path
             id="path333"
             inkscape:label="SubminorXDiv2:0:3"
             style="fill:none;stroke:#d1d1d1;stroke-width:0.07937501;stroke-opacity:1"
             d="M 60.854167,0 V 132.29167"
             inkscape:connector-curvature="0" />
          <path
             id="path335"
             inkscape:label="SubminorXDiv2:0:4"
             style="fill:none;stroke:#d1d1d1;stroke-width:0.07937501;stroke-opacity:1"
             d="M 63.5,0 V 132.29167"
             inkscape:connector-curvature="0" />
          <path
             id="path337"
             inkscape:label="SubminorXDiv2:1:1"
             style="fill:none;stroke:#d1d1d1;stroke-width:0.07937501;stroke-opacity:1"
             d="M 68.791667,0 V 132.29167"
             inkscape:connector-curvature="0" />
          <path
             id="path339"
             inkscape:label="SubminorXDiv2:1:2"
             style="fill:none;stroke:#d1d1d1;stroke-width:0.07937501;stroke-opacity:1"
             d="M 71.4375,0 V 132.29167"
             inkscape:connector-curvature="0" />
          <path
             id="path341"
             inkscape:label="SubminorXDiv2:1:3"
             style="fill:none;stroke:#d1d1d1;stroke-width:0.07937501;stroke-opacity:1"
             d="M 74.083333,0 V 132.29167"
             inkscape:connector-curvature="0" />
          <path
             id="path343"
             inkscape:label="SubminorXDiv2:1:4"
             style="fill:none;stroke:#d1d1d1;stroke-width:0.07937501;stroke-opacity:1"
             d="M 76.729167,0 V 132.29167"
             inkscape:connector-curvature="0" />
          <path
             id="path345"
             inkscape:label="SubminorXDiv3:0:1"
             style="fill:none;stroke:#d1d1d1;stroke-width:0.07937501;stroke-opacity:1"
             d="M 82.020833,0 V 132.29167"
             inkscape:connector-curvature="0" />
          <path
             id="path347"
             inkscape:label="SubminorXDiv3:0:2"
             style="fill:none;stroke:#d1d1d1;stroke-width:0.07937501;stroke-opacity:1"
             d="M 84.666667,0 V 132.29167"
             inkscape:connector-curvature="0" />
          <path
             id="path349"
             inkscape:label="SubminorXDiv3:0:3"
             style="fill:none;stroke:#d1d1d1;stroke-width:0.07937501;stroke-opacity:1"
             d="M 87.3125,0 V 132.29167"
             inkscape:connector-curvature="0" />
          <path
             id="path351"
             inkscape:label="SubminorXDiv3:0:4"
             style="fill:none;stroke:#d1d1d1;stroke-width:0.07937501;stroke-opacity:1"
             d="M 89.958333,0 V 132.29167"
             inkscape:connector-curvature="0" />
          <path
             id="path353"
             inkscape:label="SubminorXDiv3:1:1"
             style="fill:none;stroke:#d1d1d1;stroke-width:0.07937501;stroke-opacity:1"
             d="M 95.25,0 V 132.29167"
             inkscape:connector-curvature="0" />
          <path
             id="path355"
             inkscape:label="SubminorXDiv3:1:2"
             style="fill:none;stroke:#d1d1d1;stroke-width:0.07937501;stroke-opacity:1"
             d="M 97.895833,0 V 132.29167"
             inkscape:connector-curvature="0" />
          <path
             id="path357"
             inkscape:label="SubminorXDiv3:1:3"
             style="fill:none;stroke:#d1d1d1;stroke-width:0.07937501;stroke-opacity:1"
             d="M 100.54167,0 V 132.29167"
             inkscape:connector-curvature="0" />
          <path
             id="path359"
             inkscape:label="SubminorXDiv3:1:4"
             style="fill:none;stroke:#d1d1d1;stroke-width:0.07937501;stroke-opacity:1"
             d="M 103.1875,0 V 132.29167"
             inkscape:connector-curvature="0" />
          <path
             id="path361"
             inkscape:label="SubminorXDiv4:0:1"
             style="fill:none;stroke:#d1d1d1;stroke-width:0.07937501;stroke-opacity:1"
             d="M 108.47917,0 V 132.29167"
             inkscape:connector-curvature="0" />
          <path
             id="path363"
             inkscape:label="SubminorXDiv4:0:2"
             style="fill:none;stroke:#d1d1d1;stroke-width:0.07937501;stroke-opacity:1"
             d="M 111.125,0 V 132.29167"
             inkscape:connector-curvature="0" />
          <path
             id="path365"
             inkscape:label="SubminorXDiv4:0:3"
             style="fill:none;stroke:#d1d1d1;stroke-width:0.07937501;stroke-opacity:1"
             d="M 113.77083,0 V 132.29167"
             inkscape:connector-curvature="0" />
          <path
             id="path367"
             inkscape:label="SubminorXDiv4:0:4"
             style="fill:none;stroke:#d1d1d1;stroke-width:0.07937501;stroke-opacity:1"
             d="M 116.41667,0 V 132.29167"
             inkscape:connector-curvature="0" />
          <path
             id="path369"
             inkscape:label="SubminorXDiv4:1:1"
             style="fill:none;stroke:#d1d1d1;stroke-width:0.07937501;stroke-opacity:1"
             d="M 121.70833,0 V 132.29167"
             inkscape:connector-curvature="0" />
          <path
             id="path371"
             inkscape:label="SubminorXDiv4:1:2"
             style="fill:none;stroke:#d1d1d1;stroke-width:0.07937501;stroke-opacity:1"
             d="M 124.35417,0 V 132.29167"
             inkscape:connector-curvature="0" />
          <path
             id="path373"
             inkscape:label="SubminorXDiv4:1:3"
             style="fill:none;stroke:#d1d1d1;stroke-width:0.07937501;stroke-opacity:1"
             d="M 127,0 V 132.29167"
             inkscape:connector-curvature="0" />
          <path
             id="path375"
             inkscape:label="SubminorXDiv4:1:4"
             style="fill:none;stroke:#d1d1d1;stroke-width:0.07937501;stroke-opacity:1"
             d="M 129.64583,0 V 132.29167"
             inkscape:connector-curvature="0" />
          <path
             id="path377"
             inkscape:label="SubminorXDiv5:0:1"
             style="fill:none;stroke:#d1d1d1;stroke-width:0.07937501;stroke-opacity:1"
             d="M 134.9375,0 V 132.29167"
             inkscape:connector-curvature="0" />
          <path
             id="path379"
             inkscape:label="SubminorXDiv5:0:2"
             style="fill:none;stroke:#d1d1d1;stroke-width:0.07937501;stroke-opacity:1"
             d="M 137.58333,0 V 132.29167"
             inkscape:connector-curvature="0" />
          <path
             id="path381"
             inkscape:label="SubminorXDiv5:0:3"
             style="fill:none;stroke:#d1d1d1;stroke-width:0.07937501;stroke-opacity:1"
             d="M 140.22917,0 V 132.29167"
             inkscape:connector-curvature="0" />
          <path
             id="path383"
             inkscape:label="SubminorXDiv5:0:4"
             style="fill:none;stroke:#d1d1d1;stroke-width:0.07937501;stroke-opacity:1"
             d="M 142.875,0 V 132.29167"
             inkscape:connector-curvature="0" />
          <path
             id="path385"
             inkscape:label="SubminorXDiv5:1:1"
             style="fill:none;stroke:#d1d1d1;stroke-width:0.07937501;stroke-opacity:1"
             d="M 148.16667,0 V 132.29167"
             inkscape:connector-curvature="0" />
          <path
             id="path387"
             inkscape:label="SubminorXDiv5:1:2"
             style="fill:none;stroke:#d1d1d1;stroke-width:0.07937501;stroke-opacity:1"
             d="M 150.8125,0 V 132.29167"
             inkscape:connector-curvature="0" />
          <path
             id="path389"
             inkscape:label="SubminorXDiv5:1:3"
             style="fill:none;stroke:#d1d1d1;stroke-width:0.07937501;stroke-opacity:1"
             d="M 153.45833,0 V 132.29167"
             inkscape:connector-curvature="0" />
          <path
             id="path391"
             inkscape:label="SubminorXDiv5:1:4"
             style="fill:none;stroke:#d1d1d1;stroke-width:0.07937501;stroke-opacity:1"
             d="M 156.10417,0 V 132.29167"
             inkscape:connector-curvature="0" />
        </g>
        <g
           id="g435"
           inkscape:label="SubMinorYGridlines"
           style="stroke:#d1d1d1;stroke-opacity:1">
          <path
             id="path395"
             inkscape:label="SubminorXDiv0:0:1"
             style="fill:none;stroke:#d1d1d1;stroke-width:0.07937501;stroke-opacity:1"
             d="M 0,5.2916667 H 158.75"
             inkscape:connector-curvature="0" />
          <path
             id="path397"
             inkscape:label="SubminorXDiv0:0:2"
             style="fill:none;stroke:#d1d1d1;stroke-width:0.07937501;stroke-opacity:1"
             d="M 0,10.583333 H 158.75"
             inkscape:connector-curvature="0" />
          <path
             id="path399"
             inkscape:label="SubminorXDiv0:0:3"
             style="fill:none;stroke:#d1d1d1;stroke-width:0.07937501;stroke-opacity:1"
             d="M 0,15.875 H 158.75"
             inkscape:connector-curvature="0" />
          <path
             id="path401"
             inkscape:label="SubminorXDiv0:0:4"
             style="fill:none;stroke:#d1d1d1;stroke-width:0.07937501;stroke-opacity:1"
             d="M 0,21.166667 H 158.75"
             inkscape:connector-curvature="0" />
          <path
             id="path403"
             inkscape:label="SubminorXDiv1:0:1"
             style="fill:none;stroke:#d1d1d1;stroke-width:0.07937501;stroke-opacity:1"
             d="M 0,31.75 H 158.75"
             inkscape:connector-curvature="0" />
          <path
             id="path405"
             inkscape:label="SubminorXDiv1:0:2"
             style="fill:none;stroke:#d1d1d1;stroke-width:0.07937501;stroke-opacity:1"
             d="M 0,37.041667 H 158.75"
             inkscape:connector-curvature="0" />
          <path
             id="path407"
             inkscape:label="SubminorXDiv1:0:3"
             style="fill:none;stroke:#d1d1d1;stroke-width:0.07937501;stroke-opacity:1"
             d="M 0,42.333333 H 158.75"
             inkscape:connector-curvature="0" />
          <path
             id="path409"
             inkscape:label="SubminorXDiv1:0:4"
             style="fill:none;stroke:#d1d1d1;stroke-width:0.07937501;stroke-opacity:1"
             d="M 0,47.625 H 158.75"
             inkscape:connector-curvature="0" />
          <path
             id="path411"
             inkscape:label="SubminorXDiv2:0:1"
             style="fill:none;stroke:#d1d1d1;stroke-width:0.07937501;stroke-opacity:1"
             d="M 0,58.208333 H 158.75"
             inkscape:connector-curvature="0" />
          <path
             id="path413"
             inkscape:label="SubminorXDiv2:0:2"
             style="fill:none;stroke:#d1d1d1;stroke-width:0.07937501;stroke-opacity:1"
             d="M 0,63.5 H 158.75"
             inkscape:connector-curvature="0" />
          <path
             id="path415"
             inkscape:label="SubminorXDiv2:0:3"
             style="fill:none;stroke:#d1d1d1;stroke-width:0.07937501;stroke-opacity:1"
             d="M 0,68.791667 H 158.75"
             inkscape:connector-curvature="0" />
          <path
             id="path417"
             inkscape:label="SubminorXDiv2:0:4"
             style="fill:none;stroke:#d1d1d1;stroke-width:0.07937501;stroke-opacity:1"
             d="M 0,74.083333 H 158.75"
             inkscape:connector-curvature="0" />
          <path
             id="path419"
             inkscape:label="SubminorXDiv3:0:1"
             style="fill:none;stroke:#d1d1d1;stroke-width:0.07937501;stroke-opacity:1"
             d="M 0,84.666667 H 158.75"
             inkscape:connector-curvature="0" />
          <path
             id="path421"
             inkscape:label="SubminorXDiv3:0:2"
             style="fill:none;stroke:#d1d1d1;stroke-width:0.07937501;stroke-opacity:1"
             d="M 0,89.958333 H 158.75"
             inkscape:connector-curvature="0" />
          <path
             id="path423"
             inkscape:label="SubminorXDiv3:0:3"
             style="fill:none;stroke:#d1d1d1;stroke-width:0.07937501;stroke-opacity:1"
             d="M 0,95.25 H 158.75"
             inkscape:connector-curvature="0" />
          <path
             id="path425"
             inkscape:label="SubminorXDiv3:0:4"
             style="fill:none;stroke:#d1d1d1;stroke-width:0.07937501;stroke-opacity:1"
             d="M 0,100.54167 H 158.75"
             inkscape:connector-curvature="0" />
          <path
             id="path427"
             inkscape:label="SubminorXDiv4:0:1"
             style="fill:none;stroke:#d1d1d1;stroke-width:0.07937501;stroke-opacity:1"
             d="M 0,111.125 H 158.75"
             inkscape:connector-curvature="0" />
          <path
             id="path429"
             inkscape:label="SubminorXDiv4:0:2"
             style="fill:none;stroke:#d1d1d1;stroke-width:0.07937501;stroke-opacity:1"
             d="M 0,116.41667 H 158.75"
             inkscape:connector-curvature="0" />
          <path
             id="path431"
             inkscape:label="SubminorXDiv4:0:3"
             style="fill:none;stroke:#d1d1d1;stroke-width:0.07937501;stroke-opacity:1"
             d="M 0,121.70833 H 158.75"
             inkscape:connector-curvature="0" />
          <path
             id="path433"
             inkscape:label="SubminorXDiv4:0:4"
             style="fill:none;stroke:#d1d1d1;stroke-width:0.07937501;stroke-opacity:1"
             d="M 0,127 H 158.75"
             inkscape:connector-curvature="0" />
        </g>
        <rect
           id="rect437"
           inkscape:label="Border"
           y="0"
           x="0"
           width="158.75"
           style="fill:none;stroke:#d1d1d1;stroke-width:0.79374999;stroke-opacity:1"
           height="132.29167" />
      </g>
    </g>
  </g>
</svg>
